American Rescue Plan
…
#> # A tibble: 23 x 1
#>    `cumsum(arp_cont)`
#>                 <dbl>
#>  1               587.
#>  2              3278.
#>  3              4945.
#>  4              5565.
#>  5              6114.
#>  6              6663.
#>  7              7212.
#>  8              7761.
#>  9              7874.
#> 10              7988.
#> #  with 13 more rows
…
